{
    "name": "default",
    "type": "mysql",
    "host": "localhost",
    "database": "headless",
    "port": 3306,
    "username": "headless",
    "password": "headless",
    "entities": [
        "build/entities/**/*.js"
    ],
    "migrations": [
        "build/migrations/**/*.js"
    ],
    "subscribers": [
        "build/subscribers/**/*.js"
    ],
    "cli": {
        "entitiesDir": "src/entities",
        "migrationsDir": "src/migrations",
        "subscribersDir": "src/subscribers"
    },
    "logging": true,
    "synchronize": false
}